Analysis scripts: E. coli genomics • blantyreESBL
…
dassimEcoli_BTEcoli.accession %>% 
  group_by(Cluster) %>% 
  tally() %>% 
  arrange(-n)
#> # A tibble: 87 × 2
#>    Cluster     n
#>    <chr>   <int>
#>  1 E1         53
#>  2 E2         46
#>  3 E3         45
#>  4 E4         33
#>  5 E5         27
#>  6 E6         22
#>  7 E7         18
#>  8 E8         17
#>  9 E9         16
#> 10 E10        15
#> # … with 77 more rows

dassimEcoli_BTEcoli.accession %>% 
  group_by(Cluster, ST) %>% 
  tally() %>% 
  arrange(-n)
#> # A tibble: 92 × 3
#> # Groups:   Cluster [87]
#>    Cluster ST        n
#>    <chr>   <chr> <int>
#>  1 E1      131      53
#>  2 E3      410      45
#>  3 E2      167      36
#>  4 E4      44       32
#>  5 E5      636      27
#>  6 E6      617      21
#>  7 E7      648      18
#>  8 E8      656      17
#>  9 E9      46       16
#> 10 E10     940      15
#> # … with 82 more rows
…
